{
    "009d07fa-f381-43c6-8c9e-a9cb5d3b4128": {
        "key": "009d07fa-f381-43c6-8c9e-a9cb5d3b4128",
        "type": "stable",
        "build_job_id": "234532247",
        "version": {
            "$key": "9bdebda5-9bf6-485a-920b-d511f102a853",
            "$table": "KernelVersion"
        },
        "kernel_series": {
            "$key": "fc683acd-38f8-4163-b6cf-e6cecaa6fd07",
            "$table": "KernelSeries"
        },
        "workspace": {
            "$key": "d2135fd1-3f59-4bf6-814b-c807c1f7eff9",
            "$table": "Workspace"
        }
    }
}