{
    "0a186acb-2bb1-4d8e-b608-6654ed5f3f9a": {
        "key": "0a186acb-2bb1-4d8e-b608-6654ed5f3f9a",
        "type": "stable",
        "build_job_id": "251170309",
        "version": {
            "$key": "08dfafad-f55f-42c1-bfbb-f26015df3675",
            "$table": "KernelVersion"
        },
        "kernel_series": {
            "$key": "fc683acd-38f8-4163-b6cf-e6cecaa6fd07",
            "$table": "KernelSeries"
        },
        "workspace": {
            "$key": "d2135fd1-3f59-4bf6-814b-c807c1f7eff9",
            "$table": "Workspace"
        }
    }
}