{
    "0de07356-f226-4550-9e1b-f9e79e1e71d8": {
        "key": "0de07356-f226-4550-9e1b-f9e79e1e71d8",
        "type": "stable",
        "build_job_id": "255897089",
        "version": {
            "$key": "b0bef1f9-8b3c-4bd5-89e6-53a16a869591",
            "$table": "KernelVersion"
        },
        "kernel_series": {
            "$key": "fc683acd-38f8-4163-b6cf-e6cecaa6fd07",
            "$table": "KernelSeries"
        },
        "workspace": {
            "$key": "d2135fd1-3f59-4bf6-814b-c807c1f7eff9",
            "$table": "Workspace"
        }
    }
}