{
    "125013ee-b6da-4d8b-bdc7-e1c1d814dd27": {
        "key": "125013ee-b6da-4d8b-bdc7-e1c1d814dd27",
        "type": "stable",
        "build_job_id": "208933896",
        "version": {
            "$key": "c1f31e4e-d72a-4a2a-99f1-9988b80941c3",
            "$table": "KernelVersion"
        },
        "kernel_series": {
            "$key": "e7b394ff-e108-4ff9-816d-bb7d36ea5e7d",
            "$table": "KernelSeries"
        },
        "workspace": {
            "$key": "2a164900-77b2-4ae6-bcf6-58de62e59924",
            "$table": "Workspace"
        }
    }
}