{
    "49312fde-a90c-4736-bb13-2583cce792e8": {
        "key": "49312fde-a90c-4736-bb13-2583cce792e8",
        "type": "mainline",
        "build_job_id": "200046120",
        "version": {
            "$key": "dd216e82-b7af-47fa-ad25-1f600ad414cf",
            "$table": "KernelVersion"
        },
        "kernel_series": {
            "$key": "fc683acd-38f8-4163-b6cf-e6cecaa6fd07",
            "$table": "KernelSeries"
        },
        "workspace": {
            "$key": "d2135fd1-3f59-4bf6-814b-c807c1f7eff9",
            "$table": "Workspace"
        }
    }
}