{
    "52e93683-2355-409e-bdc8-5b14058db064": {
        "key": "52e93683-2355-409e-bdc8-5b14058db064",
        "type": "stable",
        "build_job_id": "143640743",
        "version": {
            "$key": "3806500e-c470-4ae3-94f1-dbb1a8c6d005",
            "$table": "KernelVersion"
        },
        "kernel_series": {
            "$key": "83aea4d0-b730-46d1-928e-cbb0afb57827",
            "$table": "KernelSeries"
        },
        "workspace": {
            "$key": "de136960-11fb-4d66-94ee-deab390f2e1e",
            "$table": "Workspace"
        }
    }
}