{
    "c7d1f596-a21e-49d5-a0b8-bce7c68206bd": {
        "key": "c7d1f596-a21e-49d5-a0b8-bce7c68206bd",
        "type": "stable",
        "build_job_id": "153999927",
        "version": {
            "$key": "f7c6754d-9ab8-492b-92e7-1c65e96c9271",
            "$table": "KernelVersion"
        },
        "kernel_series": {
            "$key": "83aea4d0-b730-46d1-928e-cbb0afb57827",
            "$table": "KernelSeries"
        },
        "workspace": {
            "$key": "de136960-11fb-4d66-94ee-deab390f2e1e",
            "$table": "Workspace"
        }
    }
}