{
    "f3479e42-ee40-4546-a70e-7833787e7178": {
        "key": "f3479e42-ee40-4546-a70e-7833787e7178",
        "type": "stable",
        "build_job_id": "207337327",
        "version": {
            "$key": "9ebbb3b2-d4d9-4e51-a0e7-a37e45e103b9",
            "$table": "KernelVersion"
        },
        "kernel_series": {
            "$key": "e7b394ff-e108-4ff9-816d-bb7d36ea5e7d",
            "$table": "KernelSeries"
        },
        "workspace": {
            "$key": "2a164900-77b2-4ae6-bcf6-58de62e59924",
            "$table": "Workspace"
        }
    }
}