{
    "f4b08ef6-a592-41b1-9a07-e6d63b0c859d": {
        "key": "f4b08ef6-a592-41b1-9a07-e6d63b0c859d",
        "type": "mainline",
        "build_job_id": "190772338",
        "version": {
            "$key": "b91f897d-5082-48e3-9207-e4c14e8fd93e",
            "$table": "KernelVersion"
        },
        "kernel_series": {
            "$key": "fc683acd-38f8-4163-b6cf-e6cecaa6fd07",
            "$table": "KernelSeries"
        },
        "workspace": {
            "$key": "d2135fd1-3f59-4bf6-814b-c807c1f7eff9",
            "$table": "Workspace"
        }
    }
}